{
    "start": {
        "settings":  [
            {
                "slot": 0,
                "channel_configs": [
                    {"slot": 0, "channel": 0, "Pw": "on", "voltage": 11600, "I0Set": 280, "effective": true},
                    {"slot": 0, "channel": 1, "Pw": "on", "voltage": 11600, "I0Set": 280, "effective": true}
                ]
            }
            
        ]
    },
    "standby": {
        "settings":  [
            {
                "slot": 0,
                "channel_configs": [
                    {"slot": 0, "channel": 0, "Pw": "on", "voltage": 6500, "I0Set": 280, "effective": true},
                    {"slot": 0, "channel": 1, "Pw": "on", "voltage": 6500, "I0Set": 280, "effective": true}
                ]
            }
            
        ]
    },
    "stop": {
        "settings":  [
            {
                "slot": 0,
                "channel_configs": [
                    {"slot": 0, "channel": 0, "Pw": "off", "voltage": 11600, "I0Set": 280, "effective": true},
                    {"slot": 0, "channel": 1, "Pw": "off", "voltage": 11600, "I0Set": 280, "effective": true}
                ]
            }
            
        ]
    }
}